{
    "$schema": "http://json-schema.org/draft-04/schema#",
    "type": "object",
    "properties": {
        "planner": {
            "type": "object",
            "properties": {
                "drawing": {
                    "type": "object",
                    "properties": {
                        "wallWidth": {
                            "type": "string",
                            "pattern": "\\d+"
                        },
                        "addons": {
                            "type": "object",
                            "properties": {
                                "_content": {
                                    "type": "string",
                                    "pattern": "\\d*"
                                },
                                "products": {
                                    "type": "string",
                                    "pattern": "\\d*"
                                }
                            },
                            "required": [
                                "products"
                            ]
                        },
                        "products": {
                            "type": "object",
                            "properties": {
                                "m3d": {
                                    "type": ["object", "array"],
                                    "properties": {
                                        "poffs": {
                                            "type": "string",
                                            "pattern": "^[-+]?[0-9]*\\.?[0-9]+([eE][-+]?[0-9]+)?,[-+]?[0-9]*\\.?[0-9]+([eE][-+]?[0-9]+)?,[-+]?[0-9]*\\.?[0-9]+([eE][-+]?[0-9]+)?(,[-+]?[0-9]*\\.?[0-9]+([eE][-+]?[0-9]+)?)?(,[-+]?[0-9]*\\.?[0-9]+([eE][-+]?[0-9]+)?)?(,[-+]?[0-9]*\\.?[0-9]+([eE][-+]?[0-9]+)?)?(,[-+]?[0-9]*\\.?[0-9]+([eE][-+]?[0-9]+)?)?(,[-+]?[0-9]*\\.?[0-9]+([eE][-+]?[0-9]+)?)?(,[-+]?[0-9]*\\.?[0-9]+([eE][-+]?[0-9]+)?)?(,[-+]?[0-9]*\\.?[0-9]+([eE][-+]?[0-9]+)?)?(,[-+]?[0-9]*\\.?[0-9]+([eE][-+]?[0-9]+)?)?(,[-+]?[0-9]*\\.?[0-9]+([eE][-+]?[0-9]+)?)?(,[-+]?[0-9]*\\.?[0-9]+([eE][-+]?[0-9]+)?)?(,[-+]?[0-9]*\\.?[0-9]+([eE][-+]?[0-9]+)?)?(,[-+]?[0-9]*\\.?[0-9]+([eE][-+]?[0-9]+)?)?(,[-+]?[0-9]*\\.?[0-9]+([eE][-+]?[0-9]+)?)?(,[-+]?[0-9]*\\.?[0-9]+([eE][-+]?[0-9]+)?)?(,[-+]?[0-9]*\\.?[0-9]+([eE][-+]?[0-9]+)?)?(,[-+]?[0-9]*\\.?[0-9]+([eE][-+]?[0-9]+)?)?(,[-+]?[0-9]*\\.?[0-9]+([eE][-+]?[0-9]+)?)?$"
                                        },
                                        "_content": {
                                            "type": "string",
                                            "pattern": "\\d*"
                                        },
                                        "pId": {
                                            "type": "string",
                                            "pattern": "\\d*"
                                        },
                                        "mtx": {
                                            "type": "string",
                                            "pattern": "^[-+]?[0-9]*\\.?[0-9]+([eE][-+]?[0-9]+)?,[-+]?[0-9]*\\.?[0-9]+([eE][-+]?[0-9]+)?,[-+]?[0-9]*\\.?[0-9]+([eE][-+]?[0-9]+)?(,[-+]?[0-9]*\\.?[0-9]+([eE][-+]?[0-9]+)?)?(,[-+]?[0-9]*\\.?[0-9]+([eE][-+]?[0-9]+)?)?(,[-+]?[0-9]*\\.?[0-9]+([eE][-+]?[0-9]+)?)?(,[-+]?[0-9]*\\.?[0-9]+([eE][-+]?[0-9]+)?)?(,[-+]?[0-9]*\\.?[0-9]+([eE][-+]?[0-9]+)?)?(,[-+]?[0-9]*\\.?[0-9]+([eE][-+]?[0-9]+)?)?(,[-+]?[0-9]*\\.?[0-9]+([eE][-+]?[0-9]+)?)?(,[-+]?[0-9]*\\.?[0-9]+([eE][-+]?[0-9]+)?)?(,[-+]?[0-9]*\\.?[0-9]+([eE][-+]?[0-9]+)?)?(,[-+]?[0-9]*\\.?[0-9]+([eE][-+]?[0-9]+)?)?(,[-+]?[0-9]*\\.?[0-9]+([eE][-+]?[0-9]+)?)?(,[-+]?[0-9]*\\.?[0-9]+([eE][-+]?[0-9]+)?)?(,[-+]?[0-9]*\\.?[0-9]+([eE][-+]?[0-9]+)?)?(,[-+]?[0-9]*\\.?[0-9]+([eE][-+]?[0-9]+)?)?(,[-+]?[0-9]*\\.?[0-9]+([eE][-+]?[0-9]+)?)?(,[-+]?[0-9]*\\.?[0-9]+([eE][-+]?[0-9]+)?)?(,[-+]?[0-9]*\\.?[0-9]+([eE][-+]?[0-9]+)?)?$"
                                        }
                                    },
                                    "required": [
                                        "poffs",
                                        "pId",
                                        "mtx"
                                    ]
                                }
                            },
                            "required": [
                                "m3d"
                            ]
                        },
                        "wallHeight": {
                            "type": "string",
                            "pattern": "\\d+"
                        },
                        "image": {
                            "type": "object",
                            "properties": {
                                "_content": {
                                    "type": "string",
                                    "pattern": "\\d*"
                                },
                                "src": {
                                    "type": "string",
                                    "pattern": "\\d*"
                                }
                            },
                            "required": [
                                "src"
                            ]
                        },
                        "savedDate": {
                            "type": "string",
                            "pattern": "\\d+-\\d+-\\d+"
                        },
                        "floor": {
                            "type": "object",
                            "properties": {
                                "bitmapMaterial": {
                                    "type": "object",
                                    "properties": {
                                        "id": {
                                            "type": "string",
                                            "pattern": "^floor_\\d+"
                                        },
                                        "_content": {
                                            "type": "string",
                                            "pattern": "\\d*"
                                        }
                                    },
                                    "required": [
                                        "id"
                                    ]
                                }
                            },
                            "required": [
                                "bitmapMaterial"
                            ]
                        },
                        "materials": {
                            "type": "object"
                        },
                        "walls": {
                            "type": "object",
                            "properties": {
                                "wall": {
                                    "type": "array",
                                    "items": {
                                        "type": "object",
                                        "properties": {
                                            "wallObjects": {
                                                "type": "object",
                                                "properties": {
                                                    "windows": {
                                                        "type": "object"
                                                    },
                                                    "doors": {
                                                        "type": "object"
                                                    }
                                                },
                                                "required": [
                                                    "windows",
                                                    "doors"
                                                ]
                                            },
                                            "bitmapMaterial": {
                                                "type": "object",
                                                "properties": {
                                                    "id": {
                                                        "type": "string",
                                                        "pattern": "^(wall_\\d+|(def_)?wall_\\w+){1,40}"
                                                    },
                                                    "_content": {
                                                        "type": "string",
                                                        "pattern": "\\d*"
                                                    }
                                                },
                                                "required": [
                                                    "id"
                                                ]
                                            },
                                            "wallVertices": {
                                                "type": "object",
                                                "properties": {
                                                    "vertex": {
                                                        "type": "array",
                                                        "items": {
                                                            "type": "object",
                                                            "properties": {
                                                                "id": {
                                                                    "type": "string",
                                                                    "pattern": "\\d*"
                                                                },
                                                                "_content": {
                                                                    "type": "string"
                                                                },
                                                                "pos": {
                                                                    "type": "string",
                                                                    "pattern": "(x=[-+]?[0-9]*\\.?[0-9]+([eE][-+]?[0-9]+)?, y=[-+]?[0-9]*\\.?[0-9]+([eE][-+]?[0-9]+)?)"
                                                                },
                                                                "type": {
                                                                    "type": "string",
                                                                    "pattern": "\\d*"
                                                                }
                                                            },
                                                            "required": [
                                                                "id",
                                                                "pos",
                                                                "type"
                                                            ]
                                                        }
                                                    }
                                                },
                                                "required": [
                                                    "vertex"
                                                ]
                                            },
                                            "snaps": {
                                                "type": "object",
                                                "properties": {
                                                    "points": {
                                                        "type": "object"
                                                    }
                                                },
                                                "required": [
                                                    "points"
                                                ]
                                            },
                                            "id": {
                                                "type": "string"
                                            }
                                        },
                                        "required": [
                                            "wallObjects",
                                            "bitmapMaterial",
                                            "wallVertices",
                                            "snaps",
                                            "id"
                                        ]
                                    }
                                }
                            },
                            "required": [
                                "wall"
                            ]
                        },
                        "camera": {
                            "type": "object",
                            "properties": {
                                "position": {
                                    "type": "string",
                                    "pattern": "^[-+]?[0-9]*\\.?[0-9]+([eE][-+]?[0-9]+)?,[-+]?[0-9]*\\.?[0-9]+([eE][-+]?[0-9]+)?,[-+]?[0-9]*\\.?[0-9]+([eE][-+]?[0-9]+)?$"
                                },
                                "pitch": {
                                    "type": "string",
                                    "pattern": "^[-+]?[0-9]*\\.?[0-9]+([eE][-+]?[0-9]+)?$"
                                },
                                "yaw": {
                                    "type": "string",
                                    "pattern": "^[-+]?[0-9]*\\.?[0-9]+([eE][-+]?[0-9]+)?$"
                                },
                                "lookAt": {
                                    "type": "string",
                                    "pattern": "^[-+]?[0-9]*\\.?[0-9]+([eE][-+]?[0-9]+)?,[-+]?[0-9]*\\.?[0-9]+([eE][-+]?[0-9]+)?,[-+]?[0-9]*\\.?[0-9]+([eE][-+]?[0-9]+)?$"
                                },
                                "_content": {
                                    "type": "string",
                                    "pattern": "\\d*"
                                },
                                "dist": {
                                    "type": "string",
                                    "pattern": "^[-+]?[0-9]*\\.?[0-9]+([eE][-+]?[0-9]+)?$"
                                }
                            },
                            "required": [
                                "position",
                                "pitch",
                                "yaw",
                                "lookAt",
                                "dist"
                            ]
                        }
                    },
                    "required": [
                        "wallWidth",
                        "addons",
                        "products",
                        "wallHeight",
                        "image",
                        "savedDate",
                        "floor",
                        "materials",
                        "walls",
                        "camera"
                    ]
                },
                "dataVersion": {
                    "type": "string",
                    "pattern": "\\d+"
                },
                "version": {
                    "type": "string",
                    "pattern": "^-?\\d*\\.?\\d+"
                }
            },
            "required": [
                "drawing",
                "dataVersion",
                "version"
            ]
        }
    },
    "required": [
        "planner"
    ]
}