{
	"title": "Configuration object",
	"type": "object",
	"required": ["model", "version"],
	"additionalProperties": false,
	"properties": {

		"model": {
			"title": "Configuration model",
			"type": "object",
			"required": ["items"],
			"additionalProperties": false,
			"properties": {
				"extraItems": {
					"title": "Array of extra articles",
					"type": "array",
					"items": {
						"title": "Extra article",
						"type": "object",
						"required": ["id", "quantity"],
						"properties": {
							"id": {
								"title": "id",
								"type": "string"
							},
							"quantity": {
								"title": "Article quantity",
								"type": "integer",
								"minimum": 0
							}
						}
					}
				},
				"items": {
					"title": "Array of articles",
					"type": "array",
					"items": {
						"title": "Article",
						"type": "object",
						"required": ["id", "x", "y"],
						"additionalProperties": true,
						"properties": {
							"id": {
								"title": "id",
								"type": "string"
							},
							"x": {
								"title": "x position",
								"type": "integer"
							},
							"y": {
								"title": "y position",
								"type": "integer"
							},
							"items": {
								"title": "Array of sub articles",
								"type": "array",
								"items": {
									"title": "Sub article",
									"type": "object",
									"required": ["id", "x", "y"],
									"additionalProperties": true,
									"properties": {
										"id": {
											"title": "id",
											"type": "string"
										},
										"x": {
											"title": "x position",
											"type": "integer"
										},
										"y": {
											"title": "y position",
											"type": "integer"
										}
									}
								}
							}
						}
					}
				}
			}
		},
		"settings": {
			"title": "Settings to be stored",
			"type": "object",
			"additionalProperties": true
		},
		"version": {
			"title": "Version of the vpc code",
			"type": "string"
		}
	}
}