{
	"title": "Configuration object",
	"type": "object",
	"required": ["model", "version"],
	"additionalProperties": false,
	"properties": {

		"model": {
			"title": "Configuration model",
			"type": "object",
			"required": ["articles"],
			"additionalProperties": false,
			"properties": {
				"extraItems": {
					"title": "Array of extra articles",
					"type": "array",
					"items": {
						"title": "Extra article",
						"type": "object",
						"required": ["id", "quantity"],
						"properties": {
							"id": {
								"title": "id",
								"type": "string"
							},
							"quantity": {
								"title": "Article quantity",
								"type": "integer",
								"minimum": 0
							}
						}
					}
				},
				"articles": {
					"title": "Array of articles",
					"type": "array",
					"items": {
						"title": "Article",
						"type": "object",
						"required": ["addonTop", "bottomId", "topId", "bottomType", "topType"],
						"additionalProperties": true,
						"properties": {
							"addonTop": {
								"title": "id",
								"type": "string"
							},
							"bottomId": {
								"title": "id",
								"type": "string"
							},
							"topId": {
								"title": "id",
								"type": "string"
							},
							"bottomType": {
								"title": "id",
								"type": "string"
							},
							"topType": {
								"title": "id",
								"type": "string"
							}
						}
					}
				}
			}
		},
		"settings": {
			"title": "Settings to be stored",
			"type": "object",
			"additionalProperties": true
		},
		"version": {
			"title": "Version of the vpc code",
			"type": "string"
		}
	}
}