{
   "title": "Configuration object",
   "type": "object",
   "required": ["room", "layerOptions", "version"],
   "additionalProperties": false,
   "properties": {
      "room": {
         "title": "Room",
         "type": "string"    
      },
      "layerOptions": {         
         "title": "Layer options",
         "type": "object",
         "additionalProperties": true,
         "properties": {
            "basecabinets": {
               "title": "Basecabinets",
               "type": "string"
            },
            "wallcabinets": {
               "title": "Wallcabinets",
               "type": "string"
            },
            "worktops": {
               "title": "Worktops",
               "type": "string"
            },
            "knobsandhandles": {
               "title": "Knobs and handles",
               "type": "string"
            },
            "taps": {
               "title": "Taps",
               "type": "string"
            },
            "hoods": {
               "title": "hoods",
               "type": "string"
            },
            "hobs": {
               "title": "hobs",
               "type": "string"
            },
            "ovens": {
               "title": "Ovens",
               "type": "string"
            },
            "sinks": {
               "title": "Sinks",
               "type": "string"
            }
         }
      },
      "version": {
         "title": "Version",
         "type": "string"
      }
   }
}