{
  "title": "Configuration object",
  "type": "object",
  "required": ["configuration"],
  "properties": {
    "configuration": {
      "title": "configuration",
      "type": "object",
      "required": ["modules", "wallShape", "accessories"],
      "properties": {
        "modules": {
          "title": "Array of modules placed on scene",
          "type": "array",
          "items": {
            "$ref": "#/definitions/moduleObject"
          }
        },
        "wallShape": {
          "$ref": "#/definitions/wallShape"
        },
        "accessories": {
          "title": "User added accessories",
          "type": "array",
          "items": {
            "title": "Article id for accessory",
            "type": "string",
            "pattern": "^[A-Z0-9_]{5,30}$"
          }
        }
      },
      "additionalProperties": false
    }
  },
  "definitions": {
    "moduleObject": {
      "title": "Module object",
      "type": "object",
      "required": ["articleId", "children", "pos"],
      "properties": {
        "articleId": {
          "title": "Article identifier",
          "type": "string",
          "pattern": "^[A-Z0-9_]{5,30}$"
        },
        "interior": {
          "title": "Interior identifier",
          "type": "string",
          "pattern": "^[A-Za-z0-9_]{5,30}$"
        },
        "layout": {
          "title": "Optional layout identifier",
          "type": "string",
          "pattern": "^[A-Za-z0-9_, ]{5,300}$"
        },
        "children": {
          "title": "Array of child modules",
          "type": "array",
          "items": {
            "$ref": "#/definitions/moduleObject"
          }
        },
        "pos": {
          "title":
            "Position composed by a parent point, a child point and a rotation",
          "type": "object",
          "required": ["child"],
          "properties": {
            "child": {
              "$ref": "#/definitions/vector3d"
            },
            "parent": {
              "$ref": "#/definitions/vector3d"
            },
            "rotation": {
              "$ref": "#/definitions/vector3d"
            }
          }
        },
        "size": {
          "title": "Module size",
          "type": "object",
          "properties": {
            "width": {
              "title": "Module width",
              "type": "number"
            },
            "height": {
              "title": "Module height",
              "type": "number"
            },
            "depth": {
              "title": "Module depth",
              "type": "number"
            }
          }
        }
      }
    },
    "vector3d": {
      "title": "3d vector",
      "type": "object",
      "required": ["x", "y", "z"],
      "properties": {
        "x": {
          "title": "x component of vector",
          "type": "number"
        },
        "y": {
          "title": "y component of vector",
          "type": "number"
        },
        "z": {
          "title": "z component of vector",
          "type": "number"
        },
        "name": {
          "title": "The name of the point. Optional.",
          "type": "string",
          "pattern": "^[A-Za-z0-9 _]{2,100}$"
        }
      }
    },
    "wallShape": {
      "title": "Shape of wall",
      "type": "object",
      "required": ["type", "shapes"],
      "properties": {
        "type": {
          "title": "Type of wall shape",
          "type": "string",
          "pattern": "^[A-Za-z0-9 _]{5,50}$"
        },
        "shapes": {
          "title": "The shapes that makes up the room",
          "type": "array",
          "items": {
            "title": "Array of corners of the shape",
            "type": "array",
            "items": {
              "title": "2d point",
              "type": "object",
              "required": ["x", "y"],
              "properties": {
                "x": {
                  "title": " x coordinate",
                  "type": "number"
                },
                "y": {
                  "title": "y coordinate",
                  "type": "number"
                }
              }
            }
          }
        }
      }
    }
  }
}
