{
	"title": "Configuration object",
	"type": "object",
	"required": 
	[
		"configuration"
	],

	"properties": 
	{
		"configuration": 
		{
			"title": "configuration",
			"type": "object",
			"required": 
			[
				"modules",
				"wallShape",
				"accessories"
			],

			"properties": 
			{
				"modules": 
				{
					"title": "Array of modules placed on scene",
					"type": "array",
					"items": 
					{
						"$ref": "#/definitions/moduleObject"
					}
				},

				"wallShape": 
				{
					"$ref": "#/definitions/wallShape"
				},

				"accessories": 
				{
					"title": "User added accessories",
					"type": "array",
					"items": 
					{
						"title": "Article id for accessory",
						"type": "string",
						"pattern": "^[A-Z0-9_]{5,30}$"
					}
				}
			},

			"additionalProperties": false
		}
	},

	"definitions": 
	{
		"moduleObject": 
		{
			"title": "Module object",
			"type": "object",
			"required": 
			[
				"articleId",
				"children"
			],

			"properties": 
			{
				"articleId": 
				{
					"title": "Article identifier",
					"type": "string",
					"pattern": "^[A-Z0-9_]{5,30}$"
				},

				"interior": 
				{
					"title": "Interior identifier",
					"type": "string",
					"pattern": "^[A-Za-z0-9_]{5,30}$"
				},

				"children": 
				{
					"title": "Array of child modules",
					"type": "array",
					"items": 
					{
						"$ref": "#/definitions/moduleObject"
					}
				},

				"pos": 
				{
					"title": "3D position",
					"type": "object",
					"required": 
					[
						"x",
						"y",
						"z"
					],

					"properties": 
					{
						"x": 
						{
							"title": "Module x-position on the scene",
							"type": "number"
						},

						"y": 
						{
							"title": "Module y-position on the scene",
							"type": "number"
						},

						"z": 
						{
							"title": "Module z-position on the scene",
							"type": "number"
						},

						"parentPoint": 
						{
							"title": "The named attachment point on the parent module where this module is attached",
							"type": "string",
							"pattern": "^[A-Za-z0-9 _]{2,50}$"
						},

						"childPoint": 
						{
							"title": "The named attachment point of the child that is matched to the parentPoint",
							"type": "string",
							"pattern": "^[A-Za-z0-9 _]{2,50}$"
						}
					}
				},

				"size": 
				{
					"title": "Module size",
					"type": "object",
					"properties": 
					{
						"width": 
						{
							"title": "Module width",
							"type": "number"
						},

						"height": 
						{
							"title": "Module height",
							"type": "number"
						},

						"depth": 
						{
							"title": "Module depth",
							"type": "number"
						}
					}
				}
			}
		},

		"wallShape": 
		{
			"title": "Shape of wall",
			"type": "object",
			"required": 
			[
				"type",
				"shapes"
			],

			"properties": 
			{
				"type": 
				{
					"title": "Type of wall shape",
					"type": "string",
					"pattern": "^[A-Za-z0-9 _]{5,50}$"
				},

				"shapes": 
				{
					"title": "The shapes that makes up the room",
					"type": "array",
					"items": 
					{
						"title": "Array of corners of the shape",
						"type": "array",
						"items": 
						{
							"title": "2d point",
							"type": "object",
							"require": 
							[
								"x",
								"y"
							],

							"properties": 
							{
								"x": 
								{
									"title": " x coordinate",
									"type": "number"
								},

								"y": 
								{
									"title": "y coordinate",
									"type": "number"
								}
							}
						}
					}
				}
			}
		}
	}
}