{
   "title": "Configuration object",
   "type": "object",
   "required": ["configuration"],
   "properties": {
      "configuration": {
         "title": "configuration",
         "type": "object",
         "required": ["children"],
         "properties": {
            "children": {
               "title": "Array of modules placed on scene",
               "type": "array",
               "items": {
                  "$ref": "#/definitions/moduleObject"
               }
            }
         },
         "additionalProperties": false
      }
   },
   "definitions": {
      "moduleObject": {
         "title": "Module object",
         "type": "object",
         "required": ["articleId", "children", "pos", "rot"],
         "properties": {
            "articleId": {
               "title": "Article identifier",
               "type": "string",
               "pattern": "[A-Z0-9_]+"
            },
            "children": {
               "title": "Array of child modules",
               "type": "array",
               "items": {
                  "$ref": "#/definitions/moduleObject"
               }
            },
            "pos": {
               "title": "Module position",
               "type": "object",
               "required": ["x", "y", "z"],
               "properties": {
                  "x": {
                     "title": "Module x-position on the scene",
                     "type": "number"
                  },
                  "y": {
                     "title": "Module y-position on the scene",
                     "type": "number"
                  },
                  "z": {
                     "title": "Module z-position on the scene",
                     "type": "number"
                  }
               }
            },
            "rot": {
               "title": "Module rotation object",
               "type": "object",
               "required": ["ry"],
               "properties": {
                  "ry": {
                     "title": "Module rotation",
                     "type": "number"
                  }
               }
            }
         },
         "additionalProperties": false
      }
   }
}
